00000000 .text
00000878 .rodata
000008e4 .eh_frame
00000bc0 .bss
00000000 .comment
00000000 .debug_aranges
00000000 .debug_info
00000000 .debug_abbrev
00000000 .debug_line
00000000 .debug_str
00000000 .debug_loc
00000000 .debug_ranges
00000000 cpt.c
00000000 ulib.c
00000000 printf.c
00000480 printint
000008d0 digits.1038
00000000 umalloc.c
00000bc0 freep
00000bc4 base
00000180 strcpy
00000520 printf
000003a0 memmove
0000041a mknod
00000290 gets
00000452 getpid
00000780 malloc
00000462 sleep
000003e2 pipe
000003f2 write
0000042a fstat
00000402 kill
00000442 chdir
0000040a exec
000003da wait
000003ea read
00000422 unlink
000003ca fork
0000045a sbrk
0000046a uptime
00000bac __bss_start
00000230 memset
00000000 main
000001b0 strcmp
0000044a dup
00000be0 buf
00000310 stat
00000bac _edata
00000de0 _end
000000c0 cpt
00000432 link
000003d2 exit
00000360 atoi
00000200 strlen
00000412 open
00000250 strchr
0000043a mkdir
000003fa close
000006f0 free
