80100000 .text
80107140 .rodata
80107b2c .stab
80107b2d .stabstr
80108000 .data
8010a520 .bss
00000000 .debug_line
00000000 .debug_info
00000000 .debug_abbrev
00000000 .debug_aranges
00000000 .debug_str
00000000 .debug_loc
00000000 .debug_ranges
00000000 .comment
00000000 bio.c
00000000 console.c
8010a520 cons
8010a558 panicked
80100520 consputc
80100690 printint
801071b0 digits.1531
00000000 exec.c
00000000 file.c
00000000 fs.c
801013a0 bfree
80101410 balloc
80101520 iget
801015f0 bmap
80101ef0 namex
00000000 ide.c
801021b0 idestart
8010a580 idelock
8010a560 havedisk1
8010a564 idequeue
00000000 ioapic.c
00000000 kalloc.c
00000000 kbd.c
8010a5b4 shift.1371
801074e0 shiftcode
801073e0 togglecode
801073c0 charcode.1372
80108200 normalmap
80108100 shiftmap
80108000 ctlmap
00000000 lapic.c
00000000 log.c
80102c90 install_trans
80102d30 write_head
00000000 main.c
801030d0 mpmain
80103110 mpenter
00000000 mp.c
80103250 mpsearch1
00000000 picirq.c
00000000 pipe.c
00000000 proc.c
80103890 allocproc
8010a000 first.1572
8010a5b8 initproc
801077a0 states.1598
00000000 sleeplock.c
00000000 spinlock.c
00000000 string.c
00000000 syscall.c
80107820 syscalls
00000000 sysfile.c
80104b30 create
80104cd0 argfd.constprop.0
00000000 sysproc.c
00000000 trap.c
00000000 uart.c
80105c10 uartgetc
8010a5bc uart
80105c40 uartputc.part.0
00000000 vm.c
80106810 walkpgdir
80106890 mappages
80106920 deallocuvm.part.0
8010a420 kmap
80100270 consoleread
8010675f vector242
801061b6 vector119
8010000c entry
80106096 vector87
8010608d vector86
801048c0 safestrcpy
80104e70 sys_close
801067cb vector251
801060ba vector91
80105eb0 vector33
8010639f vector162
80103fc0 yield
80112680 log
80112640 kmem
80106603 vector213
80106153 vector108
80105c90 uartinit
80105f0a vector43
801029e0 lapiceoi
80100410 moveCursor
801063c3 vector165
801064b3 vector185
801024b0 ioapicinit
80106192 vector115
801011f0 fileread
801061d1 vector122
80105790 sys_sbrk
80112760 ioapicid
80106357 vector156
80106783 vector245
80112634 ioapic
801064e3 vector189
80105dd4 vector7
80105fac vector61
80105e5f vector24
8010616e vector111
80106567 vector200
80105fe2 vector67
8010627f vector138
80106021 vector74
80103dd0 sched
80104790 memmove
80105f88 vector57
80104ad0 syscall
8010660f vector214
80106102 vector99
80103a50 cpuid
80101cf0 writei
801062a3 vector141
80105710 sys_fork
8010b5c0 bcache
80106417 vector172
80106753 vector241
801044b0 getcallerpcs
801053a0 sys_mkdir
801067e3 vector253
80105db0 vector3
80105da7 vector2
80101e20 namecmp
801066ab vector227
801065df vector210
80104a90 argstr
80106687 vector224
80105ef8 vector41
80100770 cprintf
80101080 filedup
80102170 namei
80105e44 vector21
80100040 binit
80106453 vector177
801061ad vector118
80105ffd vector70
80105ff4 vector69
80106723 vector237
80105fc7 vector64
80105e7a vector27
80106237 vector132
801064bf vector186
80104d90 sys_read
80106633 vector217
80104930 fetchint
80106ea0 setupkvm
801047f0 memcpy
80106e20 freevm
80105d9e vector1
8010645f vector178
80105edd vector38
801025a0 kfree
8010672f vector238
801039d0 mycpu
80101a40 iput
80106243 vector133
80106018 vector73
801062c7 vector144
801067ef vector254
801016d0 readsb
8010a004 nextpid
80106114 vector101
801065eb vector211
801032d0 mpinit
8010642f vector174
8010676b vector243
80100ff0 fileinit
80104490 initlock
80106207 vector128
801070a0 copyout
80106060 vector81
80104010 sleep
80102a00 microdelay
80105e02 vector13
80105f52 vector51
80105e19 vector16
8010ff20 input
80106747 vector240
80105f6d vector54
80105e32 vector19
801060c3 vector92
80106777 vector244
80101bc0 stati
80106297 vector140
80105740 sys_kill
80105f1c vector45
8010604e vector79
801035e0 pipeclose
801066c3 vector229
8010636f vector158
80104ec0 sys_fstat
80100710 consolewrite
80105ee6 vector39
801063e7 vector168
80102ea0 end_op
80105ec2 vector35
80106180 vector113
80102630 freerange
801061ec vector125
80106cc0 allocuvm
801058d2 trapret
80106627 vector216
80105fbe vector63
80105e71 vector26
80106513 vector193
801028c0 lapicinit
80106537 vector196
801065d3 vector209
80105db9 vector4
801063ff vector170
8010a5c0 stack
80106267 vector136
80105ded vector10
801065af vector206
801019f0 iunlock
801057e0 sys_sleep
801067fb vector255
80106483 vector181
80105f9a vector59
80106084 vector85
8010607b vector84
8010649b vector183
8010637b vector159
801065f7 vector212
80104f10 sys_link
80105f2e vector47
801066b7 vector228
80105f01 vector42
80106189 vector114
80107060 uva2ka
8010643b vector175
801062bb vector143
80101010 filealloc
801041c0 wakeup
8010621f vector130
8010678f vector246
80105de4 vector9
801062af vector142
8010610b vector100
80106573 vector201
80106f40 clearpteu
80103a70 myproc
801058e0 tvinit
80105fa3 vector60
80105e56 vector23
801018e0 idup
80106717 vector236
801028a0 kbdintr
80105240 sys_open
801066db vector231
80105fd9 vector66
80105e8c vector29
80101bf0 readi
8010625b vector135
80100920 consoleintr
80104220 kill
8010603c vector77
801017a0 ialloc
80106477 vector180
801154a4 kpgdir
801065c7 vector208
80102aa0 cmostime
80105d80 uartintr
801060f9 vector98
801060f0 vector97
80106447 vector176
8010651f vector194
80105ea7 vector32
801154a8 end
8010655b vector199
8010622b vector131
801067d7 vector252
80101280 filewrite
80105d95 vector0
801049e0 argint
80100ca0 exec
801062d3 vector145
80104e00 sys_write
80104690 release
80104970 fetchstr
8010614a vector107
80105eef vector40
801040d0 wait
8010611d vector102
80109000 entrypgdir
0010000c _start
80105f7f vector56
80105feb vector68
80105dcb vector6
8010a48c _binary_initcode_end
80100000 multiboot_header
80106213 vector129
80103d30 scheduler
80101e40 dirlookup
80106543 vector197
801010d0 fileclose
80102e30 begin_op
80106327 vector152
80106f20 kvmalloc
801066cf vector230
80104800 strncmp
80105ed4 vector37
801065a3 vector205
80106393 vector161
80114c60 tickslock
80103680 pipewrite
80104860 strncpy
80106006 vector71
80106f70 copyuvm
8010ffc0 ftable
80106387 vector160
80104a30 argptr
8010661b vector215
80106363 vector157
80104d20 sys_dup
80106177 vector112
80100390 panic
80103960 forkret
8010648f vector182
80105dfb vector12
80104730 memcmp
801027c0 kbdgetc
8010615c vector109
80105e3b vector20
80103c10 fork
80105f64 vector53
80105e29 vector18
0000008a _binary_entryother_size
80112780 cpus
80104400 releasesleep
801060de vector95
801045a0 holding
801109c0 sb
801045d0 acquire
8010669f vector226
80102190 nameiparent
80105f40 vector49
80105f13 vector44
8011267c lapic
80106045 vector78
801058ba alltraps
80106423 vector173
801061a4 vector117
80106069 vector82
8010666f vector222
80105ddd vector8
80106303 vector149
80101860 iupdate
80108000 data
801046e0 memset
801066e7 vector232
80103130 main
80106a50 switchkvm
80106141 vector106
80106657 vector220
801060b1 vector90
801063ab vector163
801066ff vector234
80103000 log_write
801043a0 acquiresleep
80105060 sys_unlink
80105fb5 vector62
80105e68 vector25
8010654f vector198
801061bf vector120
8010a48c _binary_entryother_start
80102680 kinit1
80105f49 vector50
80105e10 vector15
8010631b vector151
80106072 vector83
801060a8 vector89
8010609f vector88
80105990 trap
80105890 sys_uptime
8010646b vector179
80105eb9 vector34
80105f25 vector46
8010624f vector134
8010667b vector223
80114ca0 idt
8010663f vector218
801039b0 pinit
80106df0 deallocuvm
80106693 vector225
801029c0 lapicid
801064cb vector187
80103b90 growproc
80104440 holdingsleep
80112d00 ncpu
80105e95 vector30
80103aa0 userinit
801000d0 bread
801061fe vector127
80103790 piperead
801154a0 ticks
80106507 vector192
801063cf vector166
80100c50 consoleinit
80106033 vector76
8010602a vector75
80102310 ideintr
8010652b vector195
8010630f vector150
80105f91 vector58
801067a7 vector248
801061da vector123
801060e7 vector96
80105e9e vector31
8010658b vector203
8010628b vector139
80106333 vector153
801063b7 vector164
801042a0 procdump
801061c8 vector121
80105d50 uartputc
80105dc2 vector5
801063db vector167
8010634b vector155
801067b3 vector249
801001e0 brelse
801067bf vector250
801061e3 vector124
80106165 vector110
80106597 vector204
80101910 ilock
80105540 sys_exec
80106273 vector137
8010a460 _binary_initcode_start
8010491b swtch
8010679b vector247
80105e4d vector22
8010657f vector202
801069c0 seginit
80101ba0 iunlockput
8010600f vector72
80105f76 vector55
801061f5 vector126
80105fd0 vector65
80105e83 vector28
8010a516 _binary_entryother_end
801063f3 vector169
801001a0 bwrite
801066f3 vector233
80105960 idtinit
80103e90 exit
80105730 sys_wait
80105720 sys_exit
801020b0 dirlink
0000002c _binary_initcode_size
801062eb vector147
80104360 initsleeplock
80102290 ideinit
80106c00 loaduvm
8010612f vector104
8010619b vector116
80112d20 ptable
80102560 ioapicenable
80104540 popcli
8010a008 vectors
80105f5b vector52
80105e22 vector17
801064a7 vector184
80104900 strlen
80105630 sys_pipe
80101710 iinit
801034b0 picinit
801065bb vector207
80106b80 inituvm
801064ef vector190
8010673b vector239
801060d5 vector94
801060cc vector93
80102d90 initlog
801064d7 vector188
80105f37 vector48
801023b0 iderw
8010664b vector219
801062f7 vector148
80106663 vector221
80102750 kalloc
80110960 devsw
80105780 sys_getpid
80106057 vector80
8010640b vector171
8010633f vector154
80105ecb vector36
801034d0 pipealloc
8010670b vector235
80106138 vector105
80105490 sys_chdir
801109e0 icache
801062df vector146
801064fb vector191
80106126 vector103
80105400 sys_mknod
80102a10 lapicstartap
80106a70 switchuvm
80104500 pushcli
801026f0 kinit2
80105df4 vector11
80105e09 vector14
801011a0 filestat
